Results/DPT Results 400V_38uH/DPT_Result_400V.csv

Model,MDO3054
Firmware Version,1.30

Waveform Type,ANALOG,,,,,Waveform Type,ANALOG
Point Format,Y,,,,,Point Format,Y
Horizontal Units,s,,,,,Horizontal Units,s
Horizontal Scale,8e-07,,,,,Horizontal Scale,8e-07
Horizontal Delay,2.964e-06,,,,,Horizontal Delay,2.964e-06
Sample Interval,8e-10,,,,,Sample Interval,8e-10
Record Length,10000,,,,,Record Length,10000
Gating,0.0% to 100.0%,,,,,Gating,0.0% to 100.0%
Probe Attenuation,500,50,10,100,,Probe Attenuation,1
Vertical Units,V,V,A,A,,Vertical Units,Ws
Vertical Offset,0,0,0,0,,Vertical Offset,0
Vertical Scale,500,25,20,20,,Vertical Scale,0.001
Vertical Position,1.98,0.4,-2,-3.92,,Vertical Position,-1.78835
,,,,,,,
,,,,,,,
,,,,,,,
Label,Vds,Vge,Isw,Il,,Label,Esw
TIME,CH1,CH2,CH3,CH4,,TIME,"MATH<INTG(CH1*CH3)>"
-1.0360e-06,390,-9,0.8,-0.8,,-1.0360e-06,3.8325e-07
-1.0352e-06,390,-9,0.8,0,,-1.0352e-06,5.395e-07
-1.0344e-06,410,-9,0,0,,-1.0344e-06,5.395e-07
-1.0336e-06,390,-8,0,-0.8,,-1.0336e-06,5.395e-07
-1.0328e-06,370,-9,0,0,,-1.0328e-06,5.395e-07
-1.0320e-06,410,-9,0.8,0,,-1.0320e-06,8.52e-07
-1.0312e-06,390,-10,0,0,,-1.0312e-06,8.52e-07
-1.0304e-06,390,-10,0,0,,-1.0304e-06,8.52e-07
-1.0296e-06,390,-9,0,0,,-1.0296e-06,8.52e-07
-1.0288e-06,390,-9,0.8,0,,-1.0288e-06,1.1645e-06
-1.0280e-06,370,-10,0.8,0,,-1.0280e-06,1.32075e-06
-1.0272e-06,390,-9,0,0,,-1.0272e-06,1.32075e-06
-1.0264e-06,410,-10,0.8,0,,-1.0264e-06,1.63325e-06
-1.0256e-06,390,-9,0.8,-0.8,,-1.0256e-06,1.7895e-06
-1.0248e-06,390,-9,0,0,,-1.0248e-06,1.7895e-06
-1.0240e-06,410,-9,-0.8,0,,-1.0240e-06,1.63325e-06
-1.0232e-06,410,-9,0,-0.8,,-1.0232e-06,1.63325e-06
-1.0224e-06,390,-10,0.8,0,,-1.0224e-06,1.7895e-06
-1.0216e-06,410,-9,0,0,,-1.0216e-06,1.7895e-06
-1.0208e-06,410,-9,0.8,-0.8,,-1.0208e-06,2.102e-06
-1.0200e-06,390,-10,0,0,,-1.0200e-06,2.102e-06
-1.0192e-06,410,-9,0,0,,-1.0192e-06,2.102e-06
-1.0184e-06,410,-10,0,-0.8,,-1.0184e-06,2.102e-06
-1.0176e-06,410,-9,0,0,,-1.0176e-06,2.102e-06
-1.0168e-06,410,-9,0,0,,-1.0168e-06,2.102e-06
-1.0160e-06,390,-9,0.8,0,,-1.0160e-06,2.4145e-06
-1.0152e-06,390,-9,0.8,0,,-1.0152e-06,2.57075e-06
-1.0144e-06,410,-10,0,0,,-1.0144e-06,2.57075e-06
-1.0136e-06,390,-9,0.8,0,,-1.0136e-06,2.88325e-06
-1.0128e-06,370,-9,0.8,0,,-1.0128e-06,3.0395e-06
-1.0120e-06,390,-10,0,0,,-1.0120e-06,3.0395e-06
-1.0112e-06,410,-9,0.8,0,,-1.0112e-06,3.352e-06
-1.0104e-06,390,-9,-0.8,0,,-1.0104e-06,3.0395e-06
-1.0096e-06,370,-9,0,0,,-1.0096e-06,3.0395e-06
-1.0088e-06,370,-9,0,0,,-1.0088e-06,3.0395e-06
-1.0080e-06,350,-8,0,0,,-1.0080e-06,3.0395e-06
-1.0072e-06,390,-9,0,-0.8,,-1.0072e-06,3.0395e-06
-1.0064e-06,390,-9,0,0,,-1.0064e-06,3.0395e-06
-1.0056e-06,390,-9,0,0,,-1.0056e-06,3.0395e-06
-1.0048e-06,410,-9,0,0,,-1.0048e-06,3.0395e-06
-1.0040e-06,410,-9,0,0,,-1.0040e-06,3.0395e-06
-1.0032e-06,390,-10,0,-0.8,,-1.0032e-06,3.0395e-06
-1.0024e-06,390,-9,0.8,-0.8,,-1.0024e-06,3.352e-06
-1.0016e-06,410,-9,-0.8,-0.8,,-1.0016e-06,3.0395e-06
-1.0008e-06,410,-9,0,0.8,,-1.0008e-06,3.0395e-06
-1.0000e-06,390,-10,0.8,0,,-1.0000e-06,3.352e-06
-9.9920e-07,410,-10,0.8,0,,-9.9920e-07,3.50825e-06
-9.9840e-07,410,-10,0,0,,-9.9840e-07,3.50825e-06
-9.9760e-07,390,-9,0,0,,-9.9760e-07,3.50825e-06
-9.9680e-07,390,-9,0,0,,-9.9680e-07,3.50825e-06
-9.9600e-07,410,-10,0,0,,-9.9600e-07,3.50825e-06
-9.9520e-07,390,-9,0,0,,-9.9520e-07,3.50825e-06
-9.9440e-07,410,-9,0,0.8,,-9.9440e-07,3.50825e-06
-9.9360e-07,390,-9,-0.8,0,,-9.9360e-07,3.352e-06
-9.9280e-07,410,-8,0.8,0,,-9.9280e-07,3.6645e-06
-9.9200e-07,410,-9,0,-0.8,,-9.9200e-07,3.6645e-06
-9.9120e-07,410,-9,0,0,,-9.9120e-07,3.6645e-06
-9.9040e-07,410,-9,0.8,-1.6,,-9.9040e-07,3.82075e-06
-9.8960e-07,390,-9,0.8,0,,-9.8960e-07,4.13325e-06
-9.8880e-07,390,-9,0,0,,-9.8880e-07,4.13325e-06
-9.8800e-07,390,-10,0.8,0,,-9.8800e-07,4.2895e-06
-9.8720e-07,390,-9,0.8,0,,-9.8720e-07,4.602e-06
-9.8640e-07,390,-8,0,0,,-9.8640e-07,4.602e-06
-9.8560e-07,410,-9,0.8,0.8,,-9.8560e-07,4.9145e-06
-9.8480e-07,410,-9,0,0,,-9.8480e-07,4.9145e-06
-9.8400e-07,390,-10,0.8,0,,-9.8400e-07,5.07075e-06
-9.8320e-07,410,-10,0,0,,-9.8320e-07,5.07075e-06
-9.8240e-07,410,-8,0,0,,-9.8240e-07,5.07075e-06
-9.8160e-07,390,-8,0,0,,-9.8160e-07,5.07075e-06
-9.8080e-07,370,-9,0,0,,-9.8080e-07,5.07075e-06
-9.8000e-07,410,-9,0.8,-0.8,,-9.8000e-07,5.38325e-06
-9.7920e-07,370,-8,0.8,0,,-9.7920e-07,5.69575e-06
-9.7840e-07,390,-9,0.8,0,,-9.7840e-07,5.852e-06
-9.7760e-07,370,-10,0.8,0.8,,-9.7760e-07,6.1645e-06
-9.7680e-07,410,-8,0,-0.8,,-9.7680e-07,6.1645e-06
-9.7600e-07,410,-9,0.8,0,,-9.7600e-07,6.32075e-06
-9.7520e-07,390,-10,0,0.8,,-9.7520e-07,6.32075e-06
-9.7440e-07,390,-9,0,0,,-9.7440e-07,6.32075e-06
-9.7360e-07,370,-9,0,-0.8,,-9.7360e-07,6.32075e-06
-9.7280e-07,390,-10,0.8,0,,-9.7280e-07,6.63325e-06
-9.7200e-07,390,-9,0,-0.8,,-9.7200e-07,6.63325e-06
-9.7120e-07,390,-8,0,0,,-9.7120e-07,6.63325e-06
-9.7040e-07,390,-9,0.8,-0.8,,-9.7040e-07,6.94575e-06
-9.6960e-07,410,-10,0.8,-0.8,,-9.6960e-07,7.102e-06
-9.6880e-07,390,-8,0.8,0,,-9.6880e-07,7.4145e-06
-9.6800e-07,390,-9,0,0,,-9.6800e-07,7.4145e-06
-9.6720e-07,390,-9,0,0,,-9.6720e-07,7.4145e-06
-9.6640e-07,390,-10,0,-0.8,,-9.6640e-07,7.4145e-06
-9.6560e-07,390,-9,0.8,-0.8,,-9.6560e-07,7.57075e-06
-9.6480e-07,370,-9,0.8,0,,-9.6480e-07,7.88325e-06
-9.6400e-07,390,-10,0.8,0,,-9.6400e-07,8.0395e-06
-9.6320e-07,370,-9,0.8,0,,-9.6320e-07,8.352e-06
-9.6240e-07,410,-9,0.8,0,,-9.6240e-07,8.6645e-06
-9.6160e-07,390,-9,-0.8,0,,-9.6160e-07,8.352e-06
-9.6080e-07,390,-9,0.8,0,,-9.6080e-07,8.6645e-06
-9.6000e-07,370,-10,0,-0.8,,-9.6000e-07,8.6645e-06
-9.5920e-07,390,-9,0.8,0,,-9.5920e-07,8.82075e-06
-9.5840e-07,390,-9,0.8,0,,-9.5840e-07,9.13325e-06
-9.5760e-07,390,-9,0,0,,-9.5760e-07,9.13325e-06
-9.5680e-07,390,-10,0,0,,-9.5680e-07,9.13325e-06
-9.5600e-07,390,-9,0.8,0,,-9.5600e-07,9.2895e-06
-9.5520e-07,370,-9,0,-0.8,,-9.5520e-07,9.2895e-06
-9.5440e-07,410,-9,0.8,-0.8,,-9.5440e-07,9.602e-06
-9.5360e-07,390,-8,0,0.8,,-9.5360e-07,9.602e-06
-9.5280e-07,370,-9,0.8,-0.8,,-9.5280e-07,9.9145e-06
-9.5200e-07,390,-9,0,0.8,,-9.5200e-07,9.9145e-06
-9.5120e-07,390,-9,0,0,,-9.5120e-07,9.9145e-06
-9.5040e-07,390,-10,0,-0.8,,-9.5040e-07,9.9145e-06
-9.4960e-07,390,-10,0,0,,-9.4960e-07,9.9145e-06
-9.4880e-07,390,-9,0,0,,-9.4880e-07,9.9145e-06
-9.4800e-07,390,-9,0.8,-0.8,,-9.4800e-07,1.00707e-05
-9.4720e-07,390,-9,0.8,0,,-9.4720e-07,1.03832e-05
-9.4640e-07,410,-8,0,0,,-9.4640e-07,1.03832e-05
-9.4560e-07,410,-9,1.6,0,,-9.4560e-07,1.0852e-05
-9.4480e-07,370,-10,0,-0.8,,-9.4480e-07,1.0852e-05
-9.4400e-07,390,-9,0.8,-0.8,,-9.4400e-07,1.11645e-05
-9.4320e-07,370,-8,0.8,0,,-9.4320e-07,1.13207e-05
-9.4240e-07,410,-9,0,0,,-9.4240e-07,1.13207e-05
-9.4160e-07,410,-9,0.8,0,,-9.4160e-07,1.16332e-05
-9.4080e-07,410,-9,0.8,-0.8,,-9.4080e-07,1.19457e-05
-9.4000e-07,390,-9,0.8,0,,-9.4000e-07,1.2102e-05
-9.3920e-07,390,-8,0,-0.8,,-9.3920e-07,1.2102e-05
-9.3840e-07,390,-9,0.8,0,,-9.3840e-07,1.24145e-05
-9.3760e-07,390,-8,0.8,-0.8,,-9.3760e-07,1.25707e-05
-9.3680e-07,410,-9,0.8,0,,-9.3680e-07,1.28832e-05
-9.3600e-07,390,-8,0,0,,-9.3600e-07,1.28832e-05
-9.3520e-07,350,-9,0,0,,-9.3520e-07,1.28832e-05
-9.3440e-07,390,-10,0,0.8,,-9.3440e-07,1.28832e-05
-9.3360e-07,390,-9,0.8,-0.8,,-9.3360e-07,1.31957e-05
-9.3280e-07,390,-9,0,0,,-9.3280e-07,1.31957e-05
-9.3200e-07,370,-9,0,-0.8,,-9.3200e-07,1.31957e-05
-9.3120e-07,370,-10,0,0,,-9.3120e-07,1.31957e-05
-9.3040e-07,370,-9,0,0,,-9.3040e-07,1.31957e-05
-9.2960e-07,390,-9,0,0,,-9.2960e-07,1.31957e-05
-9.2880e-07,390,-10,0.8,0,,-9.2880e-07,1.3352e-05
-9.2800e-07,390,-8,0,0.8,,-9.2800e-07,1.3352e-05
-9.2720e-07,390,-10,-0.8,-0.8,,-9.2720e-07,1.31957e-05
-9.2640e-07,410,-10,0,0,,-9.2640e-07,1.31957e-05
-9.2560e-07,370,-10,0.8,-0.8,,-9.2560e-07,1.3352e-05
-9.2480e-07,410,-10,0,-0.8,,-9.2480e-07,1.3352e-05
-9.2400e-07,370,-9,0,0,,-9.2400e-07,1.3352e-05
-9.2320e-07,410,-9,0.8,0,,-9.2320e-07,1.36645e-05
-9.2240e-07,410,-9,0.8,0.8,,-9.2240e-07,1.3977e-05
-9.2160e-07,390,-9,0.8,0,,-9.2160e-07,1.41332e-05
-9.2080e-07,390,-8,0,0,,-9.2080e-07,1.41332e-05
-9.2000e-07,390,-9,0.8,0,,-9.2000e-07,1.44457e-05
-9.1920e-07,410,-9,0,-0.8,,-9.1920e-07,1.44457e-05
-9.1840e-07,410,-9,-0.8,0,,-9.1840e-07,1.41332e-05
-9.1760e-07,410,-8,0.8,0,,-9.1760e-07,1.44457e-05
-9.1680e-07,390,-8,0,0,,-9.1680e-07,1.44457e-05
-9.1600e-07,410,-9,-0.8,-0.8,,-9.1600e-07,1.41332e-05
-9.1520e-07,390,-9,0.8,0.8,,-9.1520e-07,1.44457e-05
-9.1440e-07,370,-9,0.8,0,,-9.1440e-07,1.4602e-05
-9.1360e-07,390,-8,0.8,0,,-9.1360e-07,1.49145e-05
-9.1280e-07,390,-10,0,0.8,,-9.1280e-07,1.49145e-05
-9.1200e-07,410,-10,0.8,0,,-9.1200e-07,1.5227e-05
-9.1120e-07,390,-9,0,-0.8,,-9.1120e-07,1.5227e-05
-9.1040e-07,390,-9,-0.8,0,,-9.1040e-07,1.49145e-05
-9.0960e-07,410,-9,0.8,0.8,,-9.0960e-07,1.5227e-05
-9.0880e-07,390,-9,0.8,-0.8,,-9.0880e-07,1.53832e-05
-9.0800e-07,410,-10,0.8,0,,-9.0800e-07,1.56957e-05
-9.0720e-07,390,-10,0,0,,-9.0720e-07,1.56957e-05
-9.0640e-07,390,-10,0,0,,-9.0640e-07,1.56957e-05
-9.0560e-07,410,-9,0.8,-0.8,,-9.0560e-07,1.60082e-05
-9.0480e-07,370,-10,0,-0.8,,-9.0480e-07,1.60082e-05
-9.0400e-07,390,-10,-0.8,-0.8,,-9.0400e-07,1.56957e-05
-9.0320e-07,390,-9,0.8,-0.8,,-9.0320e-07,1.60082e-05
-9.0240e-07,390,-8,0.8,0,,-9.0240e-07,1.61645e-05
-9.0160e-07,370,-9,0,0,,-9.0160e-07,1.61645e-05
-9.0080e-07,370,-10,0,0.8,,-9.0080e-07,1.61645e-05
-9.0000e-07,370,-9,0,0,,-9.0000e-07,1.61645e-05
-8.9920e-07,370,-9,0.8,0,,-8.9920e-07,1.6477e-05
-8.9840e-07,390,-9,0,0,,-8.9840e-07,1.6477e-05
-8.9760e-07,390,-9,0,0,,-8.9760e-07,1.6477e-05
-8.9680e-07,390,-9,0,-0.8,,-8.9680e-07,1.6477e-05
-8.9600e-07,370,-9,0,-0.8,,-8.9600e-07,1.6477e-05
-8.9520e-07,410,-10,0,0.8,,-8.9520e-07,1.6477e-05
-8.9440e-07,390,-10,0,0,,-8.9440e-07,1.6477e-05
-8.9360e-07,410,-10,0.8,0.8,,-8.9360e-07,1.66332e-05
-8.9280e-07,410,-9,-0.8,0,,-8.9280e-07,1.6477e-05
-8.9200e-07,410,-10,0.8,0.8,,-8.9200e-07,1.66332e-05
-8.9120e-07,390,-9,0,0,,-8.9120e-07,1.66332e-05
-8.9040e-07,390,-9,0,0.8,,-8.9040e-07,1.66332e-05
-8.8960e-07,390,-10,0,0.8,,-8.8960e-07,1.66332e-05
-8.8880e-07,390,-9,0.8,0,,-8.8880e-07,1.69457e-05
-8.8800e-07,410,-10,0,0,,-8.8800e-07,1.69457e-05
-8.8720e-07,410,-9,0,0,,-8.8720e-07,1.69457e-05
-8.8640e-07,410,-8,0,-0.8,,-8.8640e-07,1.69457e-05
-8.8560e-07,390,-7,0.8,-0.8,,-8.8560e-07,1.72582e-05
-8.8480e-07,390,-9,0,0,,-8.8480e-07,1.72582e-05
-8.8400e-07,390,-10,0.8,0,,-8.8400e-07,1.74145e-05
-8.8320e-07,390,-10,0,-0.8,,-8.8320e-07,1.74145e-05
-8.8240e-07,370,-10,0.8,-0.8,,-8.8240e-07,1.7727e-05
-8.8160e-07,390,-9,0.8,0,,-8.8160e-07,1.78832e-05
-8.8080e-07,390,-9,0,0,,-8.8080e-07,1.78832e-05
-8.8000e-07,410,-10,0.8,-0.8,,-8.8000e-07,1.81957e-05
-8.7920e-07,390,-9,-0.8,-0.8,,-8.7920e-07,1.78832e-05
-8.7840e-07,390,-9,0,0,,-8.7840e-07,1.78832e-05
-8.7760e-07,390,-9,0,-0.8,,-8.7760e-07,1.78832e-05
-8.7680e-07,390,-9,0.8,0,,-8.7680e-07,1.81957e-05
-8.7600e-07,390,-9,0,0,,-8.7600e-07,1.81957e-05
-8.7520e-07,410,-8,0.8,0,,-8.7520e-07,1.85082e-05
-8.7440e-07,390,-9,0.8,-0.8,,-8.7440e-07,1.86645e-05
-8.7360e-07,390,-9,0,0,,-8.7360e-07,1.86645e-05
-8.7280e-07,410,-9,0.8,-0.8,,-8.7280e-07,1.8977e-05
-8.7200e-07,410,-9,0,0.8,,-8.7200e-07,1.8977e-05
-8.7120e-07,390,-9,0.8,0.8,,-8.7120e-07,1.92895e-05
-8.7040e-07,370,-8,0,0.8,,-8.7040e-07,1.92895e-05
-8.6960e-07,390,-9,-0.8,0,,-8.6960e-07,1.8977e-05
-8.6880e-07,410,-10,0,-0.8,,-8.6880e-07,1.8977e-05
-8.6800e-07,410,-9,0,0.8,,-8.6800e-07,1.8977e-05
-8.6720e-07,410,-10,0.8,0,,-8.6720e-07,1.92895e-05
-8.6640e-07,370,-8,0.8,0.8,,-8.6640e-07,1.94457e-05
-8.6560e-07,390,-8,0.8,0,,-8.6560e-07,1.97582e-05
-8.6480e-07,390,-9,0,-0.8,,-8.6480e-07,1.97582e-05
-8.6400e-07,410,-9,0,0,,-8.6400e-07,1.97582e-05
-8.6320e-07,390,-8,0,0,,-8.6320e-07,1.97582e-05
-8.6240e-07,390,-9,-0.8,0,,-8.6240e-07,1.94457e-05
-8.6160e-07,390,-10,0,0,,-8.6160e-07,1.94457e-05
-8.6080e-07,410,-9,0,0.8,,-8.6080e-07,1.94457e-05
-8.6000e-07,410,-9,0.8,0,,-8.6000e-07,1.97582e-05
-8.5920e-07,390,-9,0,0.8,,-8.5920e-07,1.97582e-05
-8.5840e-07,370,-9,0,-0.8,,-8.5840e-07,1.97582e-05
-8.5760e-07,390,-9,0.8,0,,-8.5760e-07,1.99145e-05
-8.5680e-07,410,-9,0,0,,-8.5680e-07,1.99145e-05
-8.5600e-07,390,-10,-0.8,0,,-8.5600e-07,1.97582e-05
-8.5520e-07,390,-9,0.8,0.8,,-8.5520e-07,1.99145e-05
-8.5440e-07,390,-9,0,0,,-8.5440e-07,1.99145e-05
-8.5360e-07,390,-9,0.8,0,,-8.5360e-07,2.0227e-05
-8.5280e-07,390,-9,0,0,,-8.5280e-07,2.0227e-05
-8.5200e-07,370,-9,0,0,,-8.5200e-07,2.0227e-05
-8.5120e-07,410,-9,0.8,0,,-8.5120e-07,2.05395e-05
-8.5040e-07,430,-9,0,0.8,,-8.5040e-07,2.05395e-05
-8.4960e-07,410,-9,0,-0.8,,-8.4960e-07,2.05395e-05
-8.4880e-07,390,-9,0.8,0,,-8.4880e-07,2.06957e-05
-8.4800e-07,370,-10,0,0,,-8.4800e-07,2.06957e-05
-8.4720e-07,390,-8,0,0.8,,-8.4720e-07,2.06957e-05
-8.4640e-07,410,-9,0,0,,-8.4640e-07,2.06957e-05
-8.4560e-07,390,-8,0,0,,-8.4560e-07,2.06957e-05
-8.4480e-07,390,-10,0,-0.8,,-8.4480e-07,2.06957e-05
-8.4400e-07,410,-9,0.8,0.8,,-8.4400e-07,2.10082e-05
-8.4320e-07,390,-9,0.8,0,,-8.4320e-07,2.13207e-05
-8.4240e-07,390,-9,-0.8,0,,-8.4240e-07,2.10082e-05
-8.4160e-07,390,-9,0.8,0,,-8.4160e-07,2.13207e-05
-8.4080e-07,390,-9,0.8,0,,-8.4080e-07,2.1477e-05
-8.4000e-07,410,-8,-0.8,-0.8,,-8.4000e-07,2.11645e-05
-8.3920e-07,390,-9,0.8,0.8,,-8.3920e-07,2.1477e-05
-8.3840e-07,370,-9,0,0,,-8.3840e-07,2.1477e-05
-8.3760e-07,390,-10,0,0,,-8.3760e-07,2.1477e-05
-8.3680e-07,370,-9,0,0,,-8.3680e-07,2.1477e-05
-8.3600e-07,390,-8,0.8,0,,-8.3600e-07,2.17895e-05
-8.3520e-07,410,-8,0.8,0,,-8.3520e-07,2.19457e-05
-8.3440e-07,390,-9,0.8,0.8,,-8.3440e-07,2.22582e-05
-8.3360e-07,370,-10,0,0,,-8.3360e-07,2.22582e-05
-8.3280e-07,370,-9,0.8,-1.6,,-8.3280e-07,2.24145e-05
-8.3200e-07,390,-9,0.8,0.8,,-8.3200e-07,2.2727e-05
-8.3120e-07,390,-9,0,0,,-8.3120e-07,2.2727e-05
-8.3040e-07,390,-9,0,0,,-8.3040e-07,2.2727e-05
-8.2960e-07,390,-9,0,0,,-8.2960e-07,2.2727e-05
-8.2880e-07,390,-9,-0.8,0,,-8.2880e-07,2.24145e-05
-8.2800e-07,390,-9,0.8,0,,-8.2800e-07,2.2727e-05
-8.2720e-07,390,-9,0.8,0,,-8.2720e-07,2.30395e-05
-8.2640e-07,390,-9,0,0,,-8.2640e-07,2.30395e-05
-8.2560e-07,410,-9,0,-0.8,,-8.2560e-07,2.30395e-05
-8.2480e-07,390,-9,0,0,,-8.2480e-07,2.30395e-05
-8.2400e-07,370,-9,0,-0.8,,-8.2400e-07,2.30395e-05
-8.2320e-07,390,-9,0,0,,-8.2320e-07,2.30395e-05
-8.2240e-07,390,-10,0,0,,-8.2240e-07,2.30395e-05
-8.2160e-07,410,-10,0.8,-0.8,,-8.2160e-07,2.31957e-05
-8.2080e-07,390,-10,-0.8,0,,-8.2080e-07,2.30395e-05
-8.2000e-07,410,-10,0.8,0,,-8.2000e-07,2.31957e-05
-8.1920e-07,410,-8,0,0,,-8.1920e-07,2.31957e-05
-8.1840e-07,410,-9,0,0,,-8.1840e-07,2.31957e-05
-8.1760e-07,390,-10,0,0,,-8.1760e-07,2.31957e-05
-8.1680e-07,390,-10,0.8,0,,-8.1680e-07,2.35082e-05
-8.1600e-07,390,-9,0,-0.8,,-8.1600e-07,2.35082e-05
-8.1520e-07,390,-9,0,0,,-8.1520e-07,2.35082e-05
-8.1440e-07,410,-9,0.8,0,,-8.1440e-07,2.38207e-05
-8.1360e-07,390,-10,0,0,,-8.1360e-07,2.38207e-05
-8.1280e-07,390,-9,0,0,,-8.1280e-07,2.38207e-05
-8.1200e-07,390,-10,0.8,-0.8,,-8.1200e-07,2.3977e-05
-8.1120e-07,390,-9,0.8,0,,-8.1120e-07,2.42895e-05
-8.1040e-07,410,-8,0,0,,-8.1040e-07,2.42895e-05
-8.0960e-07,370,-9,-0.8,-0.8,,-8.0960e-07,2.3977e-05
-8.0880e-07,390,-9,0.8,0,,-8.0880e-07,2.42895e-05
-8.0800e-07,390,-9,0.8,0,,-8.0800e-07,2.4602e-05
-8.0720e-07,410,-8,0,0,,-8.0720e-07,2.4602e-05
-8.0640e-07,410,-9,0.8,0,,-8.0640e-07,2.47582e-05
-8.0560e-07,410,-9,0.8,0,,-8.0560e-07,2.50707e-05
-8.0480e-07,390,-9,0.8,0,,-8.0480e-07,2.53832e-05
-8.0400e-07,410,-9,0.8,-0.8,,-8.0400e-07,2.55395e-05
-8.0320e-07,410,-9,0,0,,-8.0320e-07,2.55395e-05
-8.0240e-07,390,-10,0,-0.8,,-8.0240e-07,2.55395e-05
-8.0160e-07,410,-10,0,0,,-8.0160e-07,2.55395e-05
-8.0080e-07,410,-8,0.8,0,,-8.0080e-07,2.5852e-05
-8.0000e-07,410,-10,-0.8,0.8,,-8.0000e-07,2.55395e-05
-7.9920e-07,410,-9,0.8,0.8,,-7.9920e-07,2.5852e-05
-7.9840e-07,410,-9,0,0.8,,-7.9840e-07,2.5852e-05
-7.9760e-07,390,-9,0,0,,-7.9760e-07,2.5852e-05
-7.9680e-07,390,-9,0,-0.8,,-7.9680e-07,2.5852e-05
-7.9600e-07,390,-10,-0.8,0.8,,-7.9600e-07,2.55395e-05
-7.9520e-07,390,-9,0.8,0,,-7.9520e-07,2.5852e-05
-7.9440e-07,390,-10,0.8,0,,-7.9440e-07,2.60082e-05
-7.9360e-07,390,-9,0,0,,-7.9360e-07,2.60082e-05
-7.9280e-07,390,-10,0,-0.8,,-7.9280e-07,2.60082e-05
-7.9200e-07,370,-9,0.8,0,,-7.9200e-07,2.63207e-05
-7.9120e-07,410,-9,0,0,,-7.9120e-07,2.63207e-05
-7.9040e-07,410,-9,0,-0.8,,-7.9040e-07,2.63207e-05
-7.8960e-07,390,-10,0.8,0,,-7.8960e-07,2.66332e-05
-7.8880e-07,370,-9,0,0,,-7.8880e-07,2.66332e-05
-7.8800e-07,390,-10,0,0,,-7.8800e-07,2.66332e-05
-7.8720e-07,350,-9,0,0,,-7.8720e-07,2.66332e-05
-7.8640e-07,370,-9,0,0,,-7.8640e-07,2.66332e-05
-7.8560e-07,410,-9,0.8,0,,-7.8560e-07,2.67895e-05
-7.8480e-07,390,-8,0,-0.8,,-7.8480e-07,2.67895e-05
-7.8400e-07,390,-10,0.8,0,,-7.8400e-07,2.7102e-05
-7.8320e-07,410,-9,0.8,0.8,,-7.8320e-07,2.74145e-05
-7.8240e-07,390,-8,0,0,,-7.8240e-07,2.74145e-05
-7.8160e-07,370,-9,0.8,0,,-7.8160e-07,2.75707e-05
-7.8080e-07,390,-8,0,0,,-7.8080e-07,2.75707e-05
-7.8000e-07,410,-9,0.8,0.8,,-7.8000e-07,2.78832e-05
-7.7920e-07,390,-10,0.8,-0.8,,-7.7920e-07,2.80395e-05
-7.7840e-07,410,-9,-0.8,0,,-7.7840e-07,2.78832e-05
-7.7760e-07,410,-8,0,0,,-7.7760e-07,2.78832e-05
-7.7680e-07,410,-8,0.8,-0.8,,-7.7680e-07,2.80395e-05
-7.7600e-07,410,-9,0,0,,-7.7600e-07,2.80395e-05
-7.7520e-07,390,-8,0,0.8,,-7.7520e-07,2.80395e-05
-7.7440e-07,410,-9,0,0,,-7.7440e-07,2.80395e-05
-7.7360e-07,410,-9,0,0,,-7.7360e-07,2.80395e-05
-7.7280e-07,390,-9,1.6,0.8,,-7.7280e-07,2.86645e-05
-7.7200e-07,390,-9,0,0,,-7.7200e-07,2.86645e-05
-7.7120e-07,390,-8,0,-0.8,,-7.7120e-07,2.86645e-05
-7.7040e-07,390,-10,0,-0.8,,-7.7040e-07,2.86645e-05
-7.6960e-07,390,-8,0.8,0,,-7.6960e-07,2.88207e-05
-7.6880e-07,410,-8,0,0,,-7.6880e-07,2.88207e-05
-7.6800e-07,410,-9,0.8,0,,-7.6800e-07,2.91332e-05
-7.6720e-07,410,-9,0,0,,-7.6720e-07,2.91332e-05
-7.6640e-07,370,-9,0.8,0,,-7.6640e-07,2.92895e-05
-7.6560e-07,410,-9,0,0.8,,-7.6560e-07,2.92895e-05
-7.6480e-07,390,-9,0.8,0,,-7.6480e-07,2.9602e-05
-7.6400e-07,370,-9,0,0,,-7.6400e-07,2.9602e-05
-7.6320e-07,410,-10,0,0,,-7.6320e-07,2.9602e-05
-7.6240e-07,410,-10,-0.8,0,,-7.6240e-07,2.92895e-05
-7.6160e-07,390,-8,0.8,0,,-7.6160e-07,2.9602e-05
-7.6080e-07,410,-8,0.8,0,,-7.6080e-07,2.99145e-05
-7.6000e-07,370,-8,0.8,0.8,,-7.6000e-07,3.00707e-05
-7.5920e-07,390,-10,0,0,,-7.5920e-07,3.00707e-05
-7.5840e-07,390,-9,0.8,0,,-7.5840e-07,3.03832e-05
-7.5760e-07,390,-10,0,0,,-7.5760e-07,3.03832e-05
-7.5680e-07,390,-10,0,0,,-7.5680e-07,3.03832e-05
-7.5600e-07,370,-9,-0.8,0,,-7.5600e-07,3.00707e-05
-7.5520e-07,390,-9,0,0,,-7.5520e-07,3.00707e-05
-7.5440e-07,390,-9,0,0,,-7.5440e-07,3.00707e-05
-7.5360e-07,390,-9,-0.8,-0.8,,-7.5360e-07,2.99145e-05
-7.5280e-07,410,-9,0,0,,-7.5280e-07,2.99145e-05
-7.5200e-07,390,-9,0,0,,-7.5200e-07,2.99145e-05
-7.5120e-07,390,-9,0.8,0,,-7.5120e-07,3.00707e-05
-7.5040e-07,390,-9,0,0.8,,-7.5040e-07,3.00707e-05
-7.4960e-07,390,-9,0,0,,-7.4960e-07,3.00707e-05
-7.4880e-07,390,-8,0.8,0,,-7.4880e-07,3.03832e-05
-7.4800e-07,410,-10,0,0,,-7.4800e-07,3.03832e-05
-7.4720e-07,390,-10,0.8,0,,-7.4720e-07,3.05395e-05
-7.4640e-07,410,-10,-0.8,0,,-7.4640e-07,3.03832e-05
-7.4560e-07,410,-10,-0.8,-0.8,,-7.4560e-07,3.00707e-05
-7.4480e-07,390,-9,0,-0.8,,-7.4480e-07,3.00707e-05
-7.4400e-07,390,-8,0.8,-0.8,,-7.4400e-07,3.03832e-05
-7.4320e-07,410,-9,0.8,0,,-7.4320e-07,3.05395e-05
-7.4240e-07,410,-9,0,0.8,,-7.4240e-07,3.05395e-05
-7.4160e-07,410,-9,-0.8,0,,-7.4160e-07,3.03832e-05
-7.4080e-07,370,-9,0.8,0,,-7.4080e-07,3.05395e-05
-7.4000e-07,390,-9,0.8,-0.8,,-7.4000e-07,3.0852e-05
-7.3920e-07,410,-9,0,0,,-7.3920e-07,3.0852e-05
-7.3840e-07,390,-8,0.8,0,,-7.3840e-07,3.10082e-05
-7.3760e-07,410,-9,0,0,,-7.3760e-07,3.10082e-05
-7.3680e-07,410,-9,0,-0.8,,-7.3680e-07,3.10082e-05
-7.3600e-07,370,-9,0,0,,-7.3600e-07,3.10082e-05
-7.3520e-07,390,-10,0.8,-0.8,,-7.3520e-07,3.13207e-05
-7.3440e-07,390,-9,0,0,,-7.3440e-07,3.13207e-05
-7.3360e-07,390,-10,0,-0.8,,-7.3360e-07,3.13207e-05
-7.3280e-07,370,-9,0,0,,-7.3280e-07,3.13207e-05
-7.3200e-07,390,-9,0,0,,-7.3200e-07,3.13207e-05
-7.3120e-07,370,-9,0.8,0.8,,-7.3120e-07,3.1477e-05
-7.3040e-07,390,-9,0,0,,-7.3040e-07,3.1477e-05
-7.2960e-07,390,-7,0,0,,-7.2960e-07,3.1477e-05
-7.2880e-07,410,-10,0,0,,-7.2880e-07,3.1477e-05
-7.2800e-07,390,-9,0.8,0,,-7.2800e-07,3.17895e-05
