Results/DPT Results 250V_38uH/DPT_250V.csv

Model,MDO3054
Firmware Version,1.30

Waveform Type,ANALOG,,,,,Waveform Type,ANALOG
Point Format,Y,,,,,Point Format,Y
Horizontal Units,s,,,,,Horizontal Units,s
Horizontal Scale,8e-07,,,,,Horizontal Scale,8e-07
Horizontal Delay,2.912e-06,,,,,Horizontal Delay,2.912e-06
Sample Interval,8e-10,,,,,Sample Interval,8e-10
Record Length,10000,,,,,Record Length,10000
Gating,0.0% to 100.0%,,,,,Gating,0.0% to 100.0%
Probe Attenuation,500,50,10,100,,Probe Attenuation,1
Vertical Units,V,V,A,A,,Vertical Units,Ws
Vertical Offset,0,0,0,0,,Vertical Offset,0
Vertical Scale,250,25,20,20,,Vertical Scale,0.0005
Vertical Position,1.98,1,-2,-3.92,,Vertical Position,-2.01364
,,,,,,,
,,,,,,,
,,,,,,,
Label,Vds,Vge,Isw,Il,,Label,Esw
TIME,CH1,CH2,CH3,CH4,,TIME,"MATH<INTG(CH1*CH3)>"
-1.0880e-06,245,-9,0,0,,-1.0880e-06,2.2325e-08
-1.0872e-06,275,-10,0,0,,-1.0872e-06,2.2325e-08
-1.0864e-06,255,-9,0,0,,-1.0864e-06,2.2325e-08
-1.0856e-06,255,-8,0.8,0,,-1.0856e-06,1.78575e-07
-1.0848e-06,255,-9,0.8,0,,-1.0848e-06,3.34825e-07
-1.0840e-06,245,-10,0,-0.8,,-1.0840e-06,3.34825e-07
-1.0832e-06,245,-8,0,0,,-1.0832e-06,3.34825e-07
-1.0824e-06,255,-9,0,0,,-1.0824e-06,3.34825e-07
-1.0816e-06,255,-9,0,0.8,,-1.0816e-06,3.34825e-07
-1.0808e-06,255,-9,0.8,-0.8,,-1.0808e-06,4.91075e-07
-1.0800e-06,255,-9,0,0,,-1.0800e-06,4.91075e-07
-1.0792e-06,245,-10,0,-0.8,,-1.0792e-06,4.91075e-07
-1.0784e-06,255,-9,0,0.8,,-1.0784e-06,4.91075e-07
-1.0776e-06,255,-8,0,0,,-1.0776e-06,4.91075e-07
-1.0768e-06,255,-9,0,0,,-1.0768e-06,4.91075e-07
-1.0760e-06,255,-10,0,0,,-1.0760e-06,4.91075e-07
-1.0752e-06,255,-9,0,0,,-1.0752e-06,4.91075e-07
-1.0744e-06,275,-7,0,-0.8,,-1.0744e-06,4.91075e-07
-1.0736e-06,245,-9,-0.8,0,,-1.0736e-06,3.34825e-07
-1.0728e-06,265,-9,0,-0.8,,-1.0728e-06,3.34825e-07
-1.0720e-06,255,-9,0.8,0.8,,-1.0720e-06,5.692e-07
-1.0712e-06,245,-9,0.8,-0.8,,-1.0712e-06,7.2545e-07
-1.0704e-06,255,-9,0.8,0,,-1.0704e-06,8.817e-07
-1.0696e-06,265,-9,0,0,,-1.0696e-06,8.817e-07
-1.0688e-06,265,-10,0,0.8,,-1.0688e-06,8.817e-07
-1.0680e-06,255,-10,0,0,,-1.0680e-06,8.817e-07
-1.0672e-06,265,-9,0,0,,-1.0672e-06,8.817e-07
-1.0664e-06,255,-8,0.8,-0.8,,-1.0664e-06,1.03795e-06
-1.0656e-06,275,-10,0.8,0,,-1.0656e-06,1.1942e-06
-1.0648e-06,255,-9,0,0,,-1.0648e-06,1.1942e-06
-1.0640e-06,255,-9,0,0,,-1.0640e-06,1.1942e-06
-1.0632e-06,255,-10,-0.8,0,,-1.0632e-06,1.03795e-06
-1.0624e-06,255,-9,0,0,,-1.0624e-06,1.03795e-06
-1.0616e-06,255,-9,0,0,,-1.0616e-06,1.03795e-06
-1.0608e-06,245,-9,0,0,,-1.0608e-06,1.03795e-06
-1.0600e-06,255,-8,0.8,0.8,,-1.0600e-06,1.1942e-06
-1.0592e-06,245,-10,0,-0.8,,-1.0592e-06,1.1942e-06
-1.0584e-06,255,-9,0,0.8,,-1.0584e-06,1.1942e-06
-1.0576e-06,255,-7,0.8,0.8,,-1.0576e-06,1.35045e-06
-1.0568e-06,255,-9,0.8,0,,-1.0568e-06,1.5067e-06
-1.0560e-06,265,-10,0.8,0,,-1.0560e-06,1.66295e-06
-1.0552e-06,255,-10,0,0,,-1.0552e-06,1.66295e-06
-1.0544e-06,255,-9,0,0,,-1.0544e-06,1.66295e-06
-1.0536e-06,255,-9,0,0,,-1.0536e-06,1.66295e-06
-1.0528e-06,265,-9,0,0,,-1.0528e-06,1.66295e-06
-1.0520e-06,255,-9,0.8,-0.8,,-1.0520e-06,1.8192e-06
-1.0512e-06,255,-10,0,-0.8,,-1.0512e-06,1.8192e-06
-1.0504e-06,245,-9,0,-0.8,,-1.0504e-06,1.8192e-06
-1.0496e-06,255,-9,0,0,,-1.0496e-06,1.8192e-06
-1.0488e-06,255,-8,0,0,,-1.0488e-06,1.8192e-06
-1.0480e-06,265,-9,0,0,,-1.0480e-06,1.8192e-06
-1.0472e-06,255,-9,0.8,0,,-1.0472e-06,2.05358e-06
-1.0464e-06,255,-9,0,-0.8,,-1.0464e-06,2.05358e-06
-1.0456e-06,245,-9,0,0,,-1.0456e-06,2.05358e-06
-1.0448e-06,245,-9,0,0,,-1.0448e-06,2.05358e-06
-1.0440e-06,265,-9,0,0,,-1.0440e-06,2.05358e-06
-1.0432e-06,255,-9,0.8,-0.8,,-1.0432e-06,2.20983e-06
-1.0424e-06,255,-9,0,0,,-1.0424e-06,2.20983e-06
-1.0416e-06,265,-9,0.8,0,,-1.0416e-06,2.36608e-06
-1.0408e-06,255,-9,0.8,0,,-1.0408e-06,2.52233e-06
-1.0400e-06,255,-8,0,0,,-1.0400e-06,2.52233e-06
-1.0392e-06,255,-9,0,0,,-1.0392e-06,2.52233e-06
-1.0384e-06,265,-10,0.8,-0.8,,-1.0384e-06,2.67858e-06
-1.0376e-06,245,-9,0,-0.8,,-1.0376e-06,2.67858e-06
-1.0368e-06,265,-9,0,-0.8,,-1.0368e-06,2.67858e-06
-1.0360e-06,255,-9,-0.8,-0.8,,-1.0360e-06,2.52233e-06
-1.0352e-06,255,-8,-0.8,0,,-1.0352e-06,2.36608e-06
-1.0344e-06,255,-9,0,-0.8,,-1.0344e-06,2.36608e-06
-1.0336e-06,245,-9,0.8,-0.8,,-1.0336e-06,2.52233e-06
-1.0328e-06,265,-10,0,-0.8,,-1.0328e-06,2.52233e-06
-1.0320e-06,265,-10,0,0,,-1.0320e-06,2.52233e-06
-1.0312e-06,265,-9,0.8,0,,-1.0312e-06,2.67858e-06
-1.0304e-06,255,-9,0.8,-0.8,,-1.0304e-06,2.83483e-06
-1.0296e-06,255,-10,0,0,,-1.0296e-06,2.83483e-06
-1.0288e-06,245,-10,0,0,,-1.0288e-06,2.83483e-06
-1.0280e-06,255,-10,0.8,-0.8,,-1.0280e-06,2.99108e-06
-1.0272e-06,255,-10,0.8,-0.8,,-1.0272e-06,3.14733e-06
-1.0264e-06,255,-9,0.8,0,,-1.0264e-06,3.30358e-06
-1.0256e-06,265,-10,0,-0.8,,-1.0256e-06,3.30358e-06
-1.0248e-06,255,-10,0,0,,-1.0248e-06,3.30358e-06
-1.0240e-06,255,-9,0,-0.8,,-1.0240e-06,3.30358e-06
-1.0232e-06,245,-10,0,0.8,,-1.0232e-06,3.30358e-06
-1.0224e-06,255,-9,0,-0.8,,-1.0224e-06,3.30358e-06
-1.0216e-06,255,-9,0.8,-0.8,,-1.0216e-06,3.45983e-06
-1.0208e-06,255,-9,0,0,,-1.0208e-06,3.45983e-06
-1.0200e-06,255,-9,0,0,,-1.0200e-06,3.45983e-06
-1.0192e-06,265,-9,0,0,,-1.0192e-06,3.45983e-06
-1.0184e-06,255,-10,0.8,-0.8,,-1.0184e-06,3.6942e-06
-1.0176e-06,265,-8,-0.8,0,,-1.0176e-06,3.45983e-06
-1.0168e-06,255,-9,0,-0.8,,-1.0168e-06,3.45983e-06
-1.0160e-06,255,-10,-0.8,0,,-1.0160e-06,3.30358e-06
-1.0152e-06,255,-8,0,-0.8,,-1.0152e-06,3.30358e-06
-1.0144e-06,255,-9,0.8,0.8,,-1.0144e-06,3.45983e-06
-1.0136e-06,245,-10,0.8,-0.8,,-1.0136e-06,3.61608e-06
-1.0128e-06,245,-10,0,0,,-1.0128e-06,3.61608e-06
-1.0120e-06,255,-8,0,0.8,,-1.0120e-06,3.61608e-06
-1.0112e-06,265,-10,-0.8,-0.8,,-1.0112e-06,3.45983e-06
-1.0104e-06,255,-10,0.8,0,,-1.0104e-06,3.61608e-06
-1.0096e-06,265,-10,0.8,0,,-1.0096e-06,3.85045e-06
-1.0088e-06,265,-9,0,-0.8,,-1.0088e-06,3.85045e-06
-1.0080e-06,255,-9,-0.8,0,,-1.0080e-06,3.61608e-06
-1.0072e-06,245,-9,-0.8,0,,-1.0072e-06,3.45983e-06
-1.0064e-06,255,-9,0,-0.8,,-1.0064e-06,3.45983e-06
-1.0056e-06,255,-9,0,0,,-1.0056e-06,3.45983e-06
-1.0048e-06,255,-9,0.8,0,,-1.0048e-06,3.61608e-06
-1.0040e-06,235,-9,0,0,,-1.0040e-06,3.61608e-06
-1.0032e-06,255,-9,0,0,,-1.0032e-06,3.61608e-06
-1.0024e-06,255,-10,-0.8,-0.8,,-1.0024e-06,3.45983e-06
-1.0016e-06,255,-9,0,0,,-1.0016e-06,3.45983e-06
-1.0008e-06,255,-9,0,0,,-1.0008e-06,3.45983e-06
-1.0000e-06,265,-9,0,0,,-1.0000e-06,3.45983e-06
-9.9920e-07,245,-9,0.8,0,,-9.9920e-07,3.61608e-06
-9.9840e-07,245,-9,0,0.8,,-9.9840e-07,3.61608e-06
-9.9760e-07,245,-10,0,0,,-9.9760e-07,3.61608e-06
-9.9680e-07,255,-10,0,0,,-9.9680e-07,3.61608e-06
-9.9600e-07,255,-8,0,0,,-9.9600e-07,3.61608e-06
-9.9520e-07,245,-10,0.8,0,,-9.9520e-07,3.77233e-06
-9.9440e-07,255,-9,0,0,,-9.9440e-07,3.77233e-06
-9.9360e-07,255,-9,0,0,,-9.9360e-07,3.77233e-06
-9.9280e-07,245,-9,0.8,0,,-9.9280e-07,3.92858e-06
-9.9200e-07,255,-9,0,0,,-9.9200e-07,3.92858e-06
-9.9120e-07,255,-10,0,0,,-9.9120e-07,3.92858e-06
-9.9040e-07,255,-9,0,0,,-9.9040e-07,3.92858e-06
-9.8960e-07,255,-8,0,0,,-9.8960e-07,3.92858e-06
-9.8880e-07,255,-9,0.8,0,,-9.8880e-07,4.16295e-06
-9.8800e-07,255,-9,0,0,,-9.8800e-07,4.16295e-06
-9.8720e-07,255,-8,0.8,0,,-9.8720e-07,4.3192e-06
-9.8640e-07,265,-9,-0.8,0,,-9.8640e-07,4.08483e-06
-9.8560e-07,255,-10,0,-0.8,,-9.8560e-07,4.08483e-06
-9.8480e-07,255,-9,0,0,,-9.8480e-07,4.08483e-06
-9.8400e-07,255,-10,0.8,0,,-9.8400e-07,4.3192e-06
-9.8320e-07,255,-8,0,-0.8,,-9.8320e-07,4.3192e-06
-9.8240e-07,255,-9,0,0,,-9.8240e-07,4.3192e-06
-9.8160e-07,255,-9,0,0,,-9.8160e-07,4.3192e-06
-9.8080e-07,275,-9,0.8,0,,-9.8080e-07,4.47545e-06
-9.8000e-07,255,-9,0,0,,-9.8000e-07,4.47545e-06
-9.7920e-07,255,-9,0,0.8,,-9.7920e-07,4.47545e-06
-9.7840e-07,255,-10,-0.8,0.8,,-9.7840e-07,4.3192e-06
-9.7760e-07,255,-9,0,0.8,,-9.7760e-07,4.3192e-06
-9.7680e-07,255,-9,0.8,0,,-9.7680e-07,4.47545e-06
-9.7600e-07,255,-8,0,0,,-9.7600e-07,4.47545e-06
-9.7520e-07,245,-9,-0.8,0,,-9.7520e-07,4.3192e-06
-9.7440e-07,255,-8,0,-0.8,,-9.7440e-07,4.3192e-06
-9.7360e-07,245,-9,0.8,-0.8,,-9.7360e-07,4.47545e-06
-9.7280e-07,265,-9,-0.8,0,,-9.7280e-07,4.3192e-06
-9.7200e-07,255,-9,0,0,,-9.7200e-07,4.3192e-06
-9.7120e-07,265,-9,0,0,,-9.7120e-07,4.3192e-06
-9.7040e-07,255,-9,0,-0.8,,-9.7040e-07,4.3192e-06
-9.6960e-07,255,-9,0,0,,-9.6960e-07,4.3192e-06
-9.6880e-07,255,-10,0,0,,-9.6880e-07,4.3192e-06
-9.6800e-07,255,-9,0.8,-0.8,,-9.6800e-07,4.47545e-06
-9.6720e-07,255,-9,0,0,,-9.6720e-07,4.47545e-06
-9.6640e-07,265,-8,0,0,,-9.6640e-07,4.47545e-06
-9.6560e-07,265,-9,0.8,-1.6,,-9.6560e-07,4.6317e-06
-9.6480e-07,255,-9,-0.8,-0.8,,-9.6480e-07,4.47545e-06
-9.6400e-07,255,-8,0,0,,-9.6400e-07,4.47545e-06
-9.6320e-07,245,-10,0,0.8,,-9.6320e-07,4.47545e-06
-9.6240e-07,255,-9,0,0,,-9.6240e-07,4.47545e-06
-9.6160e-07,255,-11,-0.8,-0.8,,-9.6160e-07,4.3192e-06
-9.6080e-07,265,-9,0,0,,-9.6080e-07,4.3192e-06
-9.6000e-07,265,-9,0,0,,-9.6000e-07,4.3192e-06
-9.5920e-07,255,-9,-0.8,-0.8,,-9.5920e-07,4.16295e-06
-9.5840e-07,245,-10,0.8,-0.8,,-9.5840e-07,4.3192e-06
-9.5760e-07,255,-10,0,0,,-9.5760e-07,4.3192e-06
-9.5680e-07,255,-9,0,0,,-9.5680e-07,4.3192e-06
-9.5600e-07,255,-10,-0.8,0.8,,-9.5600e-07,4.16295e-06
-9.5520e-07,245,-9,0,0,,-9.5520e-07,4.16295e-06
-9.5440e-07,255,-9,0.8,0,,-9.5440e-07,4.3192e-06
-9.5360e-07,255,-10,0,-0.8,,-9.5360e-07,4.3192e-06
-9.5280e-07,255,-9,0,-0.8,,-9.5280e-07,4.3192e-06
-9.5200e-07,255,-8,-0.8,0.8,,-9.5200e-07,4.16295e-06
-9.5120e-07,255,-10,-0.8,0,,-9.5120e-07,3.92858e-06
-9.5040e-07,255,-10,0,0,,-9.5040e-07,3.92858e-06
-9.4960e-07,245,-9,0,-0.8,,-9.4960e-07,3.92858e-06
-9.4880e-07,255,-9,0,0.8,,-9.4880e-07,3.92858e-06
-9.4800e-07,245,-8,0,-0.8,,-9.4800e-07,3.92858e-06
-9.4720e-07,245,-10,0,0,,-9.4720e-07,3.92858e-06
-9.4640e-07,255,-10,0,0.8,,-9.4640e-07,3.92858e-06
-9.4560e-07,255,-9,0,0.8,,-9.4560e-07,3.92858e-06
-9.4480e-07,255,-9,0,0,,-9.4480e-07,3.92858e-06
-9.4400e-07,265,-10,-0.8,0,,-9.4400e-07,3.77233e-06
-9.4320e-07,255,-9,0,-0.8,,-9.4320e-07,3.77233e-06
-9.4240e-07,255,-10,0.8,0.8,,-9.4240e-07,3.92858e-06
-9.4160e-07,255,-9,0,0,,-9.4160e-07,3.92858e-06
-9.4080e-07,255,-9,0,0,,-9.4080e-07,3.92858e-06
-9.4000e-07,265,-9,0.8,-0.8,,-9.4000e-07,4.16295e-06
-9.3920e-07,255,-9,0,0,,-9.3920e-07,4.16295e-06
-9.3840e-07,245,-9,0,0,,-9.3840e-07,4.16295e-06
-9.3760e-07,255,-9,0,0,,-9.3760e-07,4.16295e-06
-9.3680e-07,255,-10,0,0,,-9.3680e-07,4.16295e-06
-9.3600e-07,245,-9,0.8,-0.8,,-9.3600e-07,4.3192e-06
-9.3520e-07,255,-9,0.8,0,,-9.3520e-07,4.47545e-06
-9.3440e-07,255,-8,-0.8,0,,-9.3440e-07,4.3192e-06
-9.3360e-07,255,-9,0,0,,-9.3360e-07,4.3192e-06
-9.3280e-07,245,-9,0,0,,-9.3280e-07,4.3192e-06
-9.3200e-07,245,-9,0.8,-0.8,,-9.3200e-07,4.47545e-06
-9.3120e-07,255,-9,0,0,,-9.3120e-07,4.47545e-06
-9.3040e-07,255,-9,0,0,,-9.3040e-07,4.47545e-06
-9.2960e-07,245,-9,0,0,,-9.2960e-07,4.47545e-06
-9.2880e-07,255,-9,0,0,,-9.2880e-07,4.47545e-06
-9.2800e-07,255,-9,0.8,-0.8,,-9.2800e-07,4.6317e-06
-9.2720e-07,255,-9,0.8,-0.8,,-9.2720e-07,4.78795e-06
-9.2640e-07,255,-9,0,0,,-9.2640e-07,4.78795e-06
-9.2560e-07,255,-8,0,0,,-9.2560e-07,4.78795e-06
-9.2480e-07,265,-10,0,0,,-9.2480e-07,4.78795e-06
-9.2400e-07,255,-10,0,0,,-9.2400e-07,4.78795e-06
-9.2320e-07,255,-9,0,-0.8,,-9.2320e-07,4.78795e-06
-9.2240e-07,245,-9,0,0,,-9.2240e-07,4.78795e-06
-9.2160e-07,245,-9,0.8,0,,-9.2160e-07,4.9442e-06
-9.2080e-07,245,-9,0,-0.8,,-9.2080e-07,4.9442e-06
-9.2000e-07,255,-9,0,0,,-9.2000e-07,4.9442e-06
-9.1920e-07,255,-9,0,0,,-9.1920e-07,4.9442e-06
-9.1840e-07,245,-9,0,-0.8,,-9.1840e-07,4.9442e-06
-9.1760e-07,245,-8,-0.8,0,,-9.1760e-07,4.78795e-06
-9.1680e-07,255,-9,0.8,0,,-9.1680e-07,4.9442e-06
-9.1600e-07,255,-9,0,-0.8,,-9.1600e-07,4.9442e-06
-9.1520e-07,255,-9,0.8,0,,-9.1520e-07,5.10045e-06
-9.1440e-07,255,-9,-0.8,0,,-9.1440e-07,4.9442e-06
-9.1360e-07,265,-9,0,0,,-9.1360e-07,4.9442e-06
-9.1280e-07,255,-10,0,-0.8,,-9.1280e-07,4.9442e-06
-9.1200e-07,255,-9,-0.8,0,,-9.1200e-07,4.78795e-06
-9.1120e-07,255,-8,-0.8,0,,-9.1120e-07,4.6317e-06
-9.1040e-07,255,-9,0.8,-1.6,,-9.1040e-07,4.78795e-06
-9.0960e-07,265,-9,0.8,0,,-9.0960e-07,4.9442e-06
-9.0880e-07,265,-9,0.8,0,,-9.0880e-07,5.10045e-06
-9.0800e-07,255,-9,0.8,0,,-9.0800e-07,5.2567e-06
-9.0720e-07,255,-9,0,0,,-9.0720e-07,5.2567e-06
-9.0640e-07,255,-9,0.8,0.8,,-9.0640e-07,5.41295e-06
-9.0560e-07,255,-9,0,0,,-9.0560e-07,5.41295e-06
-9.0480e-07,245,-9,0,-0.8,,-9.0480e-07,5.41295e-06
-9.0400e-07,255,-9,0.8,-0.8,,-9.0400e-07,5.5692e-06
-9.0320e-07,245,-8,0,0,,-9.0320e-07,5.5692e-06
-9.0240e-07,235,-9,0,-0.8,,-9.0240e-07,5.5692e-06
-9.0160e-07,235,-8,-0.8,0,,-9.0160e-07,5.41295e-06
-9.0080e-07,255,-9,-0.8,0,,-9.0080e-07,5.2567e-06
-9.0000e-07,255,-9,0,0,,-9.0000e-07,5.2567e-06
-8.9920e-07,245,-9,0,-0.8,,-8.9920e-07,5.2567e-06
-8.9840e-07,255,-9,0,0,,-8.9840e-07,5.2567e-06
-8.9760e-07,255,-10,0,-0.8,,-8.9760e-07,5.2567e-06
-8.9680e-07,255,-10,0,-0.8,,-8.9680e-07,5.2567e-06
-8.9600e-07,245,-9,0,0,,-8.9600e-07,5.2567e-06
-8.9520e-07,255,-10,0.8,0,,-8.9520e-07,5.41295e-06
-8.9440e-07,245,-9,0.8,-0.8,,-8.9440e-07,5.5692e-06
-8.9360e-07,255,-9,0.8,-0.8,,-8.9360e-07,5.72545e-06
-8.9280e-07,255,-9,0,-0.8,,-8.9280e-07,5.72545e-06
-8.9200e-07,245,-10,0.8,0,,-8.9200e-07,5.8817e-06
-8.9120e-07,255,-10,0.8,0,,-8.9120e-07,6.11608e-06
-8.9040e-07,255,-10,0.8,0,,-8.9040e-07,6.27233e-06
-8.8960e-07,255,-9,0,0.8,,-8.8960e-07,6.27233e-06
-8.8880e-07,255,-8,-0.8,-0.8,,-8.8880e-07,6.11608e-06
-8.8800e-07,255,-9,0,-0.8,,-8.8800e-07,6.11608e-06
-8.8720e-07,245,-9,0.8,0,,-8.8720e-07,6.27233e-06
-8.8640e-07,265,-9,-0.8,0,,-8.8640e-07,6.03795e-06
-8.8560e-07,255,-9,0.8,0,,-8.8560e-07,6.27233e-06
-8.8480e-07,245,-9,0,-0.8,,-8.8480e-07,6.27233e-06
-8.8400e-07,265,-9,0,0,,-8.8400e-07,6.27233e-06
-8.8320e-07,255,-9,0,0,,-8.8320e-07,6.27233e-06
-8.8240e-07,245,-9,0.8,0,,-8.8240e-07,6.42858e-06
-8.8160e-07,255,-9,0,0,,-8.8160e-07,6.42858e-06
-8.8080e-07,255,-9,-0.8,-0.8,,-8.8080e-07,6.1942e-06
-8.8000e-07,255,-8,0.8,0,,-8.8000e-07,6.42858e-06
-8.7920e-07,255,-10,0,0.8,,-8.7920e-07,6.42858e-06
-8.7840e-07,255,-9,0,-0.8,,-8.7840e-07,6.42858e-06
-8.7760e-07,255,-9,0.8,0,,-8.7760e-07,6.58483e-06
-8.7680e-07,255,-9,0,0,,-8.7680e-07,6.58483e-06
-8.7600e-07,245,-9,0,0.8,,-8.7600e-07,6.58483e-06
-8.7520e-07,255,-9,0.8,0,,-8.7520e-07,6.74108e-06
-8.7440e-07,265,-9,-0.8,0,,-8.7440e-07,6.58483e-06
-8.7360e-07,255,-9,0,0,,-8.7360e-07,6.58483e-06
-8.7280e-07,265,-10,-0.8,-0.8,,-8.7280e-07,6.35045e-06
-8.7200e-07,255,-9,0,0.8,,-8.7200e-07,6.35045e-06
-8.7120e-07,255,-9,0.8,0.8,,-8.7120e-07,6.5067e-06
-8.7040e-07,255,-9,0,-0.8,,-8.7040e-07,6.5067e-06
-8.6960e-07,255,-9,0,0,,-8.6960e-07,6.5067e-06
-8.6880e-07,245,-9,0.8,0,,-8.6880e-07,6.66295e-06
-8.6800e-07,245,-8,-0.8,0,,-8.6800e-07,6.5067e-06
-8.6720e-07,245,-10,0.8,0,,-8.6720e-07,6.66295e-06
-8.6640e-07,245,-9,0,0,,-8.6640e-07,6.66295e-06
-8.6560e-07,265,-9,-0.8,0,,-8.6560e-07,6.5067e-06
-8.6480e-07,255,-9,0,0,,-8.6480e-07,6.5067e-06
-8.6400e-07,255,-9,0.8,0,,-8.6400e-07,6.66295e-06
-8.6320e-07,255,-9,0.8,0.8,,-8.6320e-07,6.8192e-06
-8.6240e-07,255,-10,0.8,0,,-8.6240e-07,7.05358e-06
-8.6160e-07,245,-8,0,-0.8,,-8.6160e-07,7.05358e-06
-8.6080e-07,255,-9,0,0,,-8.6080e-07,7.05358e-06
-8.6000e-07,245,-9,0.8,-0.8,,-8.6000e-07,7.20983e-06
-8.5920e-07,265,-10,0,0,,-8.5920e-07,7.20983e-06
-8.5840e-07,255,-9,0.8,-0.8,,-8.5840e-07,7.36608e-06
-8.5760e-07,255,-10,-0.8,-0.8,,-8.5760e-07,7.20983e-06
-8.5680e-07,255,-10,0,0,,-8.5680e-07,7.20983e-06
-8.5600e-07,255,-11,0,-0.8,,-8.5600e-07,7.20983e-06
-8.5520e-07,265,-10,0,0,,-8.5520e-07,7.20983e-06
-8.5440e-07,255,-8,0.8,-0.8,,-8.5440e-07,7.36608e-06
-8.5360e-07,265,-9,0,-0.8,,-8.5360e-07,7.36608e-06
-8.5280e-07,245,-10,0.8,-0.8,,-8.5280e-07,7.52233e-06
-8.5200e-07,245,-9,0.8,-0.8,,-8.5200e-07,7.67858e-06
-8.5120e-07,255,-9,0.8,-0.8,,-8.5120e-07,7.83483e-06
-8.5040e-07,245,-9,0,-0.8,,-8.5040e-07,7.83483e-06
-8.4960e-07,255,-10,0,0,,-8.4960e-07,7.83483e-06
-8.4880e-07,255,-10,0,0,,-8.4880e-07,7.83483e-06
-8.4800e-07,255,-9,0,0,,-8.4800e-07,7.83483e-06
-8.4720e-07,255,-9,0,0.8,,-8.4720e-07,7.83483e-06
-8.4640e-07,255,-10,-0.8,0,,-8.4640e-07,7.67858e-06
-8.4560e-07,255,-9,0,-0.8,,-8.4560e-07,7.67858e-06
-8.4480e-07,255,-9,0.8,-0.8,,-8.4480e-07,7.83483e-06
-8.4400e-07,245,-8,0,0,,-8.4400e-07,7.83483e-06
-8.4320e-07,255,-9,0.8,-0.8,,-8.4320e-07,7.99108e-06
-8.4240e-07,255,-9,0,0,,-8.4240e-07,7.99108e-06
-8.4160e-07,255,-10,0,0,,-8.4160e-07,7.99108e-06
-8.4080e-07,255,-10,0.8,0,,-8.4080e-07,8.14733e-06
-8.4000e-07,255,-10,0,0,,-8.4000e-07,8.14733e-06
-8.3920e-07,255,-10,0.8,0,,-8.3920e-07,8.30358e-06
-8.3840e-07,245,-10,0,-0.8,,-8.3840e-07,8.30358e-06
-8.3760e-07,245,-9,0,0,,-8.3760e-07,8.30358e-06
-8.3680e-07,255,-10,0.8,0,,-8.3680e-07,8.45983e-06
-8.3600e-07,245,-9,0.8,0,,-8.3600e-07,8.61608e-06
-8.3520e-07,255,-9,-0.8,-0.8,,-8.3520e-07,8.45983e-06
-8.3440e-07,255,-9,0,0,,-8.3440e-07,8.45983e-06
-8.3360e-07,255,-10,0,-0.8,,-8.3360e-07,8.45983e-06
-8.3280e-07,265,-9,0,-0.8,,-8.3280e-07,8.45983e-06
-8.3200e-07,255,-9,0.8,-0.8,,-8.3200e-07,8.61608e-06
-8.3120e-07,255,-9,0,-0.8,,-8.3120e-07,8.61608e-06
-8.3040e-07,265,-9,0,0.8,,-8.3040e-07,8.61608e-06
-8.2960e-07,255,-9,-0.8,0,,-8.2960e-07,8.45983e-06
-8.2880e-07,255,-10,0,-0.8,,-8.2880e-07,8.45983e-06
-8.2800e-07,255,-9,0,0,,-8.2800e-07,8.45983e-06
-8.2720e-07,255,-10,0,-0.8,,-8.2720e-07,8.45983e-06
-8.2640e-07,255,-9,0,-0.8,,-8.2640e-07,8.45983e-06
-8.2560e-07,255,-9,0,-0.8,,-8.2560e-07,8.45983e-06
-8.2480e-07,265,-9,0.8,0,,-8.2480e-07,8.61608e-06
-8.2400e-07,245,-9,0,0,,-8.2400e-07,8.61608e-06
-8.2320e-07,265,-10,0.8,-0.8,,-8.2320e-07,8.77233e-06
-8.2240e-07,255,-9,0,0,,-8.2240e-07,8.77233e-06
-8.2160e-07,265,-10,0,0,,-8.2160e-07,8.77233e-06
-8.2080e-07,255,-9,0,0,,-8.2080e-07,8.77233e-06
-8.2000e-07,265,-10,0,0,,-8.2000e-07,8.77233e-06
-8.1920e-07,255,-9,0,0,,-8.1920e-07,8.77233e-06
-8.1840e-07,265,-9,0,-0.8,,-8.1840e-07,8.77233e-06
-8.1760e-07,245,-9,0,0,,-8.1760e-07,8.77233e-06
-8.1680e-07,255,-9,-0.8,0,,-8.1680e-07,8.61608e-06
-8.1600e-07,265,-9,0,0.8,,-8.1600e-07,8.61608e-06
-8.1520e-07,265,-10,0.8,-0.8,,-8.1520e-07,8.77233e-06
-8.1440e-07,265,-9,0.8,0,,-8.1440e-07,9.0067e-06
-8.1360e-07,255,-8,0,-0.8,,-8.1360e-07,9.0067e-06
-8.1280e-07,255,-8,0,-0.8,,-8.1280e-07,9.0067e-06
-8.1200e-07,245,-9,0,0.8,,-8.1200e-07,9.0067e-06
-8.1120e-07,255,-10,0,-0.8,,-8.1120e-07,9.0067e-06
-8.1040e-07,255,-9,0,0,,-8.1040e-07,9.0067e-06
-8.0960e-07,255,-10,0,0,,-8.0960e-07,9.0067e-06
-8.0880e-07,255,-10,0.8,0,,-8.0880e-07,9.16295e-06
-8.0800e-07,255,-9,0,0,,-8.0800e-07,9.16295e-06
-8.0720e-07,255,-9,0.8,0,,-8.0720e-07,9.3192e-06
-8.0640e-07,255,-9,0.8,-0.8,,-8.0640e-07,9.47545e-06
-8.0560e-07,265,-10,0,0,,-8.0560e-07,9.47545e-06
-8.0480e-07,255,-9,0,0,,-8.0480e-07,9.47545e-06
-8.0400e-07,245,-10,0,0,,-8.0400e-07,9.47545e-06
-8.0320e-07,255,-10,0,0,,-8.0320e-07,9.47545e-06
-8.0240e-07,255,-9,0,0.8,,-8.0240e-07,9.47545e-06
-8.0160e-07,255,-9,0,0,,-8.0160e-07,9.47545e-06
-8.0080e-07,255,-10,0,-0.8,,-8.0080e-07,9.47545e-06
-8.0000e-07,245,-10,-0.8,-0.8,,-8.0000e-07,9.3192e-06
-7.9920e-07,245,-8,0,0,,-7.9920e-07,9.3192e-06
-7.9840e-07,255,-10,0,0,,-7.9840e-07,9.3192e-06
-7.9760e-07,255,-9,-0.8,-0.8,,-7.9760e-07,9.16295e-06
-7.9680e-07,245,-9,0,0,,-7.9680e-07,9.16295e-06
-7.9600e-07,255,-8,0,0.8,,-7.9600e-07,9.16295e-06
-7.9520e-07,255,-9,0,-0.8,,-7.9520e-07,9.16295e-06
-7.9440e-07,245,-10,-0.8,0,,-7.9440e-07,9.0067e-06
-7.9360e-07,245,-9,0,0,,-7.9360e-07,9.0067e-06
-7.9280e-07,255,-10,0,0,,-7.9280e-07,9.0067e-06
-7.9200e-07,245,-9,0,-0.8,,-7.9200e-07,9.0067e-06
-7.9120e-07,255,-10,0.8,-0.8,,-7.9120e-07,9.16295e-06
-7.9040e-07,255,-9,0.8,0.8,,-7.9040e-07,9.3192e-06
-7.8960e-07,255,-8,0,0,,-7.8960e-07,9.3192e-06
-7.8880e-07,265,-9,0,-0.8,,-7.8880e-07,9.3192e-06
-7.8800e-07,265,-9,0,0,,-7.8800e-07,9.3192e-06
-7.8720e-07,255,-8,0,0,,-7.8720e-07,9.3192e-06
-7.8640e-07,255,-9,0,0,,-7.8640e-07,9.3192e-06
-7.8560e-07,255,-9,0.8,0,,-7.8560e-07,9.47545e-06
-7.8480e-07,245,-9,-0.8,0,,-7.8480e-07,9.3192e-06
-7.8400e-07,255,-9,-0.8,0,,-7.8400e-07,9.16295e-06
-7.8320e-07,255,-10,0,0,,-7.8320e-07,9.16295e-06
-7.8240e-07,245,-9,-0.8,0,,-7.8240e-07,9.0067e-06
-7.8160e-07,255,-9,0,0,,-7.8160e-07,9.0067e-06
-7.8080e-07,255,-9,0,0,,-7.8080e-07,9.0067e-06
